<svg width="154" height="51" viewBox="0 0 154 51" fill="none" xmlns="http://www.w3.org/2000/svg">
<rect width="153.219" height="50.4097" rx="7.95943" fill="black"/>
<path d="M57.0028 35.114H53.3149L52.7047 36.8783H50.7547L54.0843 27.6056H56.2467L59.5764 36.8783H57.613L57.0028 35.114ZM56.4987 33.6282L55.1589 29.7546L53.819 33.6282H56.4987ZM62.6782 30.5903C62.9169 30.2543 63.2442 29.9757 63.6598 29.7546C64.0843 29.5247 64.5663 29.4097 65.1058 29.4097C65.7337 29.4097 66.2997 29.5645 66.8038 29.874C67.3167 30.1835 67.7191 30.6257 68.011 31.2006C68.3117 31.7666 68.462 32.4254 68.462 33.1772C68.462 33.9289 68.3117 34.5966 68.011 35.1803C67.7191 35.7551 67.3167 36.2017 66.8038 36.5201C66.2997 36.8385 65.7337 36.9977 65.1058 36.9977C64.5663 36.9977 64.0887 36.8871 63.6731 36.666C63.2663 36.4449 62.9346 36.1664 62.6782 35.8303V40.3804H60.821V29.5291H62.6782V30.5903ZM66.565 33.1772C66.565 32.735 66.4721 32.3547 66.2864 32.0363C66.1096 31.7091 65.8708 31.4615 65.5701 31.2934C65.2782 31.1254 64.9599 31.0414 64.6149 31.0414C64.2789 31.0414 63.9605 31.1298 63.6598 31.3067C63.368 31.4747 63.1292 31.7224 62.9435 32.0496C62.7666 32.3768 62.6782 32.7615 62.6782 33.2037C62.6782 33.6459 62.7666 34.0306 62.9435 34.3578C63.1292 34.685 63.368 34.9371 63.6598 35.114C63.9605 35.282 64.2789 35.366 64.6149 35.366C64.9599 35.366 65.2782 35.2776 65.5701 35.1007C65.8708 34.9238 66.1096 34.6718 66.2864 34.3445C66.4721 34.0173 66.565 33.6282 66.565 33.1772ZM71.6688 30.5903C71.9076 30.2543 72.2348 29.9757 72.6505 29.7546C73.075 29.5247 73.5569 29.4097 74.0964 29.4097C74.7243 29.4097 75.2903 29.5645 75.7944 29.874C76.3074 30.1835 76.7098 30.6257 77.0016 31.2006C77.3023 31.7666 77.4526 32.4254 77.4526 33.1772C77.4526 33.9289 77.3023 34.5966 77.0016 35.1803C76.7098 35.7551 76.3074 36.2017 75.7944 36.5201C75.2903 36.8385 74.7243 36.9977 74.0964 36.9977C73.5569 36.9977 73.0794 36.8871 72.6637 36.666C72.2569 36.4449 71.9253 36.1664 71.6688 35.8303V40.3804H69.8116V29.5291H71.6688V30.5903ZM75.5556 33.1772C75.5556 32.735 75.4628 32.3547 75.2771 32.0363C75.1002 31.7091 74.8614 31.4615 74.5607 31.2934C74.2689 31.1254 73.9505 31.0414 73.6056 31.0414C73.2695 31.0414 72.9511 31.1298 72.6505 31.3067C72.3586 31.4747 72.1198 31.7224 71.9341 32.0496C71.7572 32.3768 71.6688 32.7615 71.6688 33.2037C71.6688 33.6459 71.7572 34.0306 71.9341 34.3578C72.1198 34.685 72.3586 34.9371 72.6505 35.114C72.9511 35.282 73.2695 35.366 73.6056 35.366C73.9505 35.366 74.2689 35.2776 74.5607 35.1007C74.8614 34.9238 75.1002 34.6718 75.2771 34.3445C75.4628 34.0173 75.5556 33.6282 75.5556 33.1772ZM85.1602 36.9712C84.5146 36.9712 83.9309 36.8606 83.4092 36.6395C82.8962 36.4184 82.4894 36.1 82.1887 35.6844C81.888 35.2687 81.7333 34.7779 81.7244 34.2119H83.7143C83.7408 34.5922 83.8735 34.8929 84.1122 35.114C84.3599 35.3351 84.6959 35.4456 85.1204 35.4456C85.5538 35.4456 85.8943 35.3439 86.1419 35.1405C86.3895 34.9282 86.5133 34.6541 86.5133 34.318C86.5133 34.0439 86.4293 33.8183 86.2613 33.6415C86.0933 33.4646 85.881 33.3275 85.6245 33.2302C85.3769 33.1241 85.032 33.0091 84.5898 32.8853C83.9884 32.7084 83.4976 32.536 83.1173 32.368C82.7459 32.1911 82.4231 31.9302 82.1489 31.5853C81.8836 31.2315 81.7509 30.7628 81.7509 30.1791C81.7509 29.6308 81.888 29.1532 82.1622 28.7464C82.4363 28.3396 82.821 28.0301 83.3163 27.8178C83.8116 27.5967 84.3776 27.4862 85.0143 27.4862C85.9694 27.4862 86.7433 27.7205 87.3358 28.1892C87.9372 28.6491 88.2688 29.2947 88.3307 30.126H86.2878C86.2701 29.8077 86.1331 29.5468 85.8766 29.3434C85.629 29.1311 85.2973 29.025 84.8817 29.025C84.5191 29.025 84.2272 29.1178 84.0061 29.3036C83.7939 29.4893 83.6877 29.759 83.6877 30.1128C83.6877 30.3604 83.7673 30.5682 83.9265 30.7363C84.0946 30.8955 84.298 31.0281 84.5367 31.1342C84.7844 31.2315 85.1293 31.3465 85.5715 31.4791C86.1728 31.656 86.6637 31.8329 87.044 32.0098C87.4242 32.1867 87.7515 32.452 88.0256 32.8057C88.2998 33.1595 88.4369 33.6238 88.4369 34.1986C88.4369 34.6939 88.3086 35.1538 88.0522 35.5783C87.7957 36.0028 87.4198 36.3432 86.9246 36.5997C86.4293 36.8473 85.8412 36.9712 85.1602 36.9712ZM92.2093 31.0546V34.6099C92.2093 34.8575 92.2668 35.0388 92.3818 35.1538C92.5056 35.2599 92.709 35.3129 92.992 35.3129H93.8543V36.8783H92.6869C91.1215 36.8783 90.3388 36.1177 90.3388 34.5966V31.0546H89.4633V29.5291H90.3388V27.7117H92.2093V29.5291H93.8543V31.0546H92.2093ZM98.4534 36.9977C97.7459 36.9977 97.1092 36.8429 96.5432 36.5334C95.9771 36.215 95.5305 35.7684 95.2033 35.1935C94.8849 34.6187 94.7257 33.9554 94.7257 33.2037C94.7257 32.452 94.8894 31.7887 95.2166 31.2138C95.5526 30.639 96.0081 30.1968 96.583 29.8873C97.1578 29.5689 97.799 29.4097 98.5065 29.4097C99.214 29.4097 99.8552 29.5689 100.43 29.8873C101.005 30.1968 101.456 30.639 101.783 31.2138C102.119 31.7887 102.287 32.452 102.287 33.2037C102.287 33.9554 102.115 34.6187 101.77 35.1935C101.434 35.7684 100.974 36.215 100.39 36.5334C99.8154 36.8429 99.1698 36.9977 98.4534 36.9977ZM98.4534 35.3793C98.7895 35.3793 99.1034 35.2997 99.3953 35.1405C99.696 34.9725 99.9348 34.7248 100.112 34.3976C100.289 34.0704 100.377 33.6724 100.377 33.2037C100.377 32.505 100.191 31.97 99.8198 31.5985C99.4572 31.2183 99.0106 31.0281 98.4799 31.0281C97.9493 31.0281 97.5027 31.2183 97.1401 31.5985C96.7864 31.97 96.6095 32.505 96.6095 33.2037C96.6095 33.9024 96.7819 34.4418 97.1268 34.8221C97.4806 35.1935 97.9228 35.3793 98.4534 35.3793ZM105.507 30.6699C105.746 30.2808 106.055 29.9757 106.435 29.7546C106.824 29.5335 107.267 29.423 107.762 29.423V31.373H107.271C106.687 31.373 106.245 31.5101 105.945 31.7843C105.653 32.0584 105.507 32.536 105.507 33.217V36.8783H103.65V29.5291H105.507V30.6699ZM115.845 33.0445C115.845 33.3098 115.827 33.5486 115.792 33.7609H110.419C110.463 34.2915 110.649 34.7071 110.976 35.0078C111.303 35.3085 111.706 35.4589 112.183 35.4589C112.873 35.4589 113.364 35.1626 113.656 34.5701H115.659C115.447 35.2776 115.04 35.8613 114.439 36.3211C113.837 36.7722 113.099 36.9977 112.223 36.9977C111.516 36.9977 110.879 36.8429 110.313 36.5334C109.756 36.215 109.318 35.7684 109 35.1935C108.69 34.6187 108.535 33.9554 108.535 33.2037C108.535 32.4431 108.69 31.7754 109 31.2006C109.309 30.6257 109.742 30.1835 110.3 29.874C110.857 29.5645 111.498 29.4097 112.223 29.4097C112.922 29.4097 113.545 29.56 114.094 29.8607C114.651 30.1614 115.08 30.5903 115.38 31.1475C115.69 31.6958 115.845 32.3282 115.845 33.0445ZM113.921 32.5139C113.912 32.0363 113.74 31.656 113.404 31.373C113.068 31.0812 112.656 30.9353 112.17 30.9353C111.71 30.9353 111.321 31.0768 111.003 31.3598C110.693 31.6339 110.503 32.0186 110.432 32.5139H113.921Z" fill="white"/>
<path d="M52.7498 11.4219C53.3547 11.4219 53.8774 11.536 54.3178 11.7641C54.7636 11.987 55.1032 12.308 55.3366 12.7272C55.5754 13.1464 55.6948 13.6399 55.6948 14.2077C55.6948 14.7755 55.5754 15.2689 55.3366 15.6881C55.1032 16.102 54.7636 16.4204 54.3178 16.6433C53.8774 16.8608 53.3547 16.9696 52.7498 16.9696H51.0226V11.4219H52.7498ZM52.7498 16.3726C53.4662 16.3726 54.0127 16.1843 54.3895 15.8075C54.7662 15.4255 54.9546 14.8922 54.9546 14.2077C54.9546 13.5179 54.7636 12.9793 54.3815 12.5919C54.0048 12.2046 53.4609 12.0109 52.7498 12.0109H51.7469V16.3726H52.7498ZM58.5525 17.0412C58.1439 17.0412 57.7725 16.9484 57.4382 16.7627C57.1092 16.5769 56.8492 16.3143 56.6581 15.9747C56.4724 15.6298 56.3796 15.2318 56.3796 14.7808C56.3796 14.335 56.4751 13.9424 56.6661 13.6028C56.8624 13.2579 57.1278 12.9952 57.462 12.8148C57.7963 12.6291 58.1704 12.5362 58.5843 12.5362C58.9982 12.5362 59.3723 12.6291 59.7066 12.8148C60.0409 12.9952 60.3036 13.2552 60.4946 13.5948C60.6909 13.9344 60.7891 14.3297 60.7891 14.7808C60.7891 15.2318 60.6883 15.6298 60.4866 15.9747C60.2903 16.3143 60.0223 16.5769 59.6827 16.7627C59.3431 16.9484 58.9664 17.0412 58.5525 17.0412ZM58.5525 16.4045C58.8125 16.4045 59.0566 16.3435 59.2848 16.2214C59.5129 16.0994 59.696 15.9163 59.834 15.6722C59.9772 15.4281 60.0489 15.131 60.0489 14.7808C60.0489 14.4305 59.9799 14.1334 59.8419 13.8893C59.704 13.6452 59.5235 13.4648 59.3007 13.3481C59.0778 13.226 58.8364 13.165 58.5764 13.165C58.3111 13.165 58.067 13.226 57.8441 13.3481C57.6265 13.4648 57.4514 13.6452 57.3188 13.8893C57.1861 14.1334 57.1198 14.4305 57.1198 14.7808C57.1198 15.1363 57.1835 15.4361 57.3108 15.6802C57.4435 15.9243 57.6186 16.1073 57.8361 16.2294C58.0537 16.3461 58.2925 16.4045 58.5525 16.4045ZM67.5518 12.6078L66.1907 16.9696H65.4426L64.3919 13.5073L63.3413 16.9696H62.5931L61.2241 12.6078H61.9643L62.9672 16.2692L64.0497 12.6078H64.7899L65.8485 16.2771L66.8355 12.6078H67.5518ZM70.3958 12.5282C70.9264 12.5282 71.3563 12.6901 71.6852 13.0138C72.0142 13.3321 72.1787 13.7938 72.1787 14.3987V16.9696H71.4624V14.5022C71.4624 14.0671 71.3536 13.7354 71.136 13.5073C70.9185 13.2738 70.6213 13.157 70.2446 13.157C69.8625 13.157 69.5574 13.2764 69.3293 13.5152C69.1064 13.754 68.995 14.1016 68.995 14.5579V16.9696H68.2706V12.6078H68.995V13.2287C69.1382 13.0058 69.3319 12.8334 69.576 12.7113C69.8254 12.5893 70.0987 12.5282 70.3958 12.5282ZM74.0862 11.0796V16.9696H73.3619V11.0796H74.0862ZM77.223 17.0412C76.8144 17.0412 76.4429 16.9484 76.1086 16.7627C75.7796 16.5769 75.5196 16.3143 75.3286 15.9747C75.1429 15.6298 75.05 15.2318 75.05 14.7808C75.05 14.335 75.1455 13.9424 75.3366 13.6028C75.5329 13.2579 75.7982 12.9952 76.1325 12.8148C76.4668 12.6291 76.8409 12.5362 77.2548 12.5362C77.6687 12.5362 78.0428 12.6291 78.3771 12.8148C78.7114 12.9952 78.974 13.2552 79.1651 13.5948C79.3614 13.9344 79.4596 14.3297 79.4596 14.7808C79.4596 15.2318 79.3587 15.6298 79.1571 15.9747C78.9608 16.3143 78.6928 16.5769 78.3532 16.7627C78.0136 16.9484 77.6368 17.0412 77.223 17.0412ZM77.223 16.4045C77.483 16.4045 77.7271 16.3435 77.9552 16.2214C78.1834 16.0994 78.3665 15.9163 78.5044 15.6722C78.6477 15.4281 78.7193 15.131 78.7193 14.7808C78.7193 14.4305 78.6503 14.1334 78.5124 13.8893C78.3744 13.6452 78.194 13.4648 77.9711 13.3481C77.7483 13.226 77.5068 13.165 77.2468 13.165C76.9815 13.165 76.7374 13.226 76.5146 13.3481C76.297 13.4648 76.1219 13.6452 75.9892 13.8893C75.8566 14.1334 75.7903 14.4305 75.7903 14.7808C75.7903 15.1363 75.8539 15.4361 75.9813 15.6802C76.1139 15.9243 76.2891 16.1073 76.5066 16.2294C76.7242 16.3461 76.9629 16.4045 77.223 16.4045ZM80.1413 14.7728C80.1413 14.3271 80.2315 13.9371 80.4119 13.6028C80.5923 13.2632 80.839 13.0005 81.1521 12.8148C81.4705 12.6291 81.8234 12.5362 82.2107 12.5362C82.5928 12.5362 82.9244 12.6184 83.2057 12.7829C83.4869 12.9474 83.6965 13.1544 83.8344 13.4038V12.6078H84.5667V16.9696H83.8344V16.1577C83.6912 16.4124 83.4763 16.6247 83.1897 16.7945C82.9085 16.959 82.5795 17.0412 82.2028 17.0412C81.8154 17.0412 81.4652 16.9457 81.1521 16.7547C80.839 16.5637 80.5923 16.2957 80.4119 15.9508C80.2315 15.6059 80.1413 15.2132 80.1413 14.7728ZM83.8344 14.7808C83.8344 14.4518 83.7681 14.1652 83.6355 13.9211C83.5028 13.6771 83.3224 13.4913 83.0942 13.364C82.8714 13.2313 82.6246 13.165 82.354 13.165C82.0834 13.165 81.8366 13.2287 81.6138 13.356C81.3909 13.4834 81.2131 13.6691 81.0805 13.9132C80.9478 14.1573 80.8815 14.4438 80.8815 14.7728C80.8815 15.1071 80.9478 15.3989 81.0805 15.6483C81.2131 15.8924 81.3909 16.0808 81.6138 16.2135C81.8366 16.3408 82.0834 16.4045 82.354 16.4045C82.6246 16.4045 82.8714 16.3408 83.0942 16.2135C83.3224 16.0808 83.5028 15.8924 83.6355 15.6483C83.7681 15.3989 83.8344 15.1098 83.8344 14.7808ZM85.5201 14.7728C85.5201 14.3271 85.6103 13.9371 85.7907 13.6028C85.9711 13.2632 86.2179 13.0005 86.531 12.8148C86.8493 12.6291 87.2049 12.5362 87.5975 12.5362C87.9371 12.5362 88.2528 12.6158 88.5447 12.775C88.8365 12.9289 89.0594 13.1332 89.2133 13.3879V11.0796H89.9455V16.9696H89.2133V16.1498C89.07 16.4098 88.8578 16.6247 88.5765 16.7945C88.2953 16.959 87.9663 17.0412 87.5896 17.0412C87.2022 17.0412 86.8493 16.9457 86.531 16.7547C86.2179 16.5637 85.9711 16.2957 85.7907 15.9508C85.6103 15.6059 85.5201 15.2132 85.5201 14.7728ZM89.2133 14.7808C89.2133 14.4518 89.147 14.1652 89.0143 13.9211C88.8816 13.6771 88.7012 13.4913 88.4731 13.364C88.2502 13.2313 88.0034 13.165 87.7328 13.165C87.4622 13.165 87.2155 13.2287 86.9926 13.356C86.7697 13.4834 86.592 13.6691 86.4593 13.9132C86.3267 14.1573 86.2603 14.4438 86.2603 14.7728C86.2603 15.1071 86.3267 15.3989 86.4593 15.6483C86.592 15.8924 86.7697 16.0808 86.9926 16.2135C87.2155 16.3408 87.4622 16.4045 87.7328 16.4045C88.0034 16.4045 88.2502 16.3408 88.4731 16.2135C88.7012 16.0808 88.8816 15.8924 89.0143 15.6483C89.147 15.3989 89.2133 15.1098 89.2133 14.7808ZM95.1939 17.0412C94.7853 17.0412 94.4138 16.9484 94.0795 16.7627C93.7506 16.5769 93.4905 16.3143 93.2995 15.9747C93.1138 15.6298 93.0209 15.2318 93.0209 14.7808C93.0209 14.335 93.1165 13.9424 93.3075 13.6028C93.5038 13.2579 93.7691 12.9952 94.1034 12.8148C94.4377 12.6291 94.8118 12.5362 95.2257 12.5362C95.6396 12.5362 96.0137 12.6291 96.348 12.8148C96.6823 12.9952 96.9449 13.2552 97.136 13.5948C97.3323 13.9344 97.4305 14.3297 97.4305 14.7808C97.4305 15.2318 97.3296 15.6298 97.128 15.9747C96.9317 16.3143 96.6637 16.5769 96.3241 16.7627C95.9845 16.9484 95.6078 17.0412 95.1939 17.0412ZM95.1939 16.4045C95.4539 16.4045 95.698 16.3435 95.9261 16.2214C96.1543 16.0994 96.3374 15.9163 96.4753 15.6722C96.6186 15.4281 96.6902 15.131 96.6902 14.7808C96.6902 14.4305 96.6213 14.1334 96.4833 13.8893C96.3453 13.6452 96.1649 13.4648 95.9421 13.3481C95.7192 13.226 95.4778 13.165 95.2177 13.165C94.9524 13.165 94.7083 13.226 94.4855 13.3481C94.2679 13.4648 94.0928 13.6452 93.9602 13.8893C93.8275 14.1334 93.7612 14.4305 93.7612 14.7808C93.7612 15.1363 93.8248 15.4361 93.9522 15.6802C94.0849 15.9243 94.26 16.1073 94.4775 16.2294C94.6951 16.3461 94.9339 16.4045 95.1939 16.4045ZM100.508 12.5282C101.039 12.5282 101.468 12.6901 101.797 13.0138C102.126 13.3321 102.291 13.7938 102.291 14.3987V16.9696H101.575V14.5022C101.575 14.0671 101.466 13.7354 101.248 13.5073C101.031 13.2738 100.733 13.157 100.357 13.157C99.9747 13.157 99.6696 13.2764 99.4414 13.5152C99.2185 13.754 99.1071 14.1016 99.1071 14.5579V16.9696H98.3828V12.6078H99.1071V13.2287C99.2504 13.0058 99.4441 12.8334 99.6881 12.7113C99.9375 12.5893 100.211 12.5282 100.508 12.5282ZM106.48 13.2048V15.7757C106.48 15.9879 106.525 16.1392 106.615 16.2294C106.705 16.3143 106.862 16.3567 107.084 16.3567H107.618V16.9696H106.965C106.562 16.9696 106.259 16.8767 106.058 16.691C105.856 16.5053 105.755 16.2002 105.755 15.7757V13.2048H105.19V12.6078H105.755V11.5094H106.48V12.6078H107.618V13.2048H106.48ZM110.66 12.5282C110.989 12.5282 111.286 12.5999 111.552 12.7431C111.817 12.8811 112.024 13.0907 112.173 13.3719C112.326 13.6532 112.403 13.9954 112.403 14.3987V16.9696H111.687V14.5022C111.687 14.0671 111.578 13.7354 111.361 13.5073C111.143 13.2738 110.846 13.157 110.469 13.157C110.087 13.157 109.782 13.2764 109.554 13.5152C109.331 13.754 109.22 14.1016 109.22 14.5579V16.9696H108.495V11.0796H109.22V13.2287C109.363 13.0058 109.559 12.8334 109.809 12.7113C110.063 12.5893 110.347 12.5282 110.66 12.5282ZM117.566 14.6216C117.566 14.7595 117.558 14.9055 117.542 15.0593H114.056C114.083 15.4892 114.229 15.8261 114.494 16.0702C114.765 16.309 115.091 16.4284 115.473 16.4284C115.786 16.4284 116.046 16.3567 116.253 16.2135C116.465 16.0649 116.614 15.8685 116.699 15.6245H117.479C117.362 16.0437 117.129 16.3859 116.778 16.6512C116.428 16.9112 115.993 17.0412 115.473 17.0412C115.059 17.0412 114.688 16.9484 114.359 16.7627C114.035 16.5769 113.78 16.3143 113.595 15.9747C113.409 15.6298 113.316 15.2318 113.316 14.7808C113.316 14.3297 113.406 13.9344 113.587 13.5948C113.767 13.2552 114.019 12.9952 114.343 12.8148C114.672 12.6291 115.048 12.5362 115.473 12.5362C115.887 12.5362 116.253 12.6264 116.571 12.8068C116.89 12.9872 117.134 13.2366 117.304 13.555C117.479 13.8681 117.566 14.2236 117.566 14.6216ZM116.818 14.4703C116.818 14.1944 116.757 13.9583 116.635 13.762C116.513 13.5603 116.346 13.4091 116.134 13.3083C115.927 13.2021 115.696 13.1491 115.441 13.1491C115.075 13.1491 114.762 13.2658 114.502 13.4993C114.247 13.7328 114.101 14.0565 114.064 14.4703H116.818Z" fill="white"/>
<path d="M32.5556 23.932C32.5451 21.8669 33.4226 20.3082 35.1989 19.1603C34.205 17.6466 32.7037 16.8137 30.7212 16.6506C28.8445 16.493 26.7933 17.8154 26.0426 17.8154C25.2496 17.8154 23.431 16.7068 22.0037 16.7068C19.0538 16.7575 15.9189 19.2109 15.9189 24.2021C15.9189 25.6764 16.1726 27.1995 16.6801 28.7714C17.3568 30.8365 19.7992 35.9009 22.3473 35.8165C23.6795 35.7827 24.6205 34.8092 26.3545 34.8092C28.0356 34.8092 28.9079 35.8165 30.3934 35.8165C32.9627 35.7771 35.1725 31.1741 35.8174 29.1034C32.3706 27.3758 32.5556 24.039 32.5556 23.932ZM29.5634 14.6923C31.0067 12.8691 30.8745 11.2091 30.8322 10.6127C29.5582 10.6915 28.0832 11.5355 27.2426 12.5765C26.3175 13.6907 25.773 15.0693 25.8893 16.6224C27.2691 16.735 28.5273 15.9809 29.5634 14.6923Z" fill="white"/>
</svg>
