<svg width="217" height="50" viewBox="0 0 217 50" fill="none" xmlns="http://www.w3.org/2000/svg">
<g style="mix-blend-mode:luminosity" opacity="0.7" clip-path="url(#clip0)">
<path fill-rule="evenodd" clip-rule="evenodd" d="M30.0305 8.20241C27.3816 8.27611 24.8064 8.792 22.3785 9.89538L25.5423 15.488C26.9405 14.8995 28.5597 14.5321 30.0305 14.5321C30.5464 14.5321 30.9876 14.6047 31.5024 14.6774C37.5362 15.1196 42.393 21.3755 41.9529 27.3346C41.437 33.8832 36.2118 38.0051 30.0305 38.2999H28.8524C24.8064 37.4165 21.4215 35.7246 19.4348 31.8976L12.8125 20.4174C11.9281 23.0674 11.6343 25.57 11.8544 28.2926C12.8862 36.9764 19.5085 43.5977 28.1912 44.6285C28.7798 44.7022 29.4431 44.7022 30.0305 44.7022C40.1125 44.5548 48.2067 36.5332 48.3541 26.526C48.2067 16.5914 40.6263 8.93835 30.9876 8.20241H30.0305ZM30.0305 50C17.0807 50 6.41016 39.4043 6.41016 26.526C6.41016 20.1984 8.91064 14.4573 13.0325 10.1902L24.2905 29.6171C24.8053 30.4983 25.5413 31.309 26.4235 31.9713C27.4553 32.5608 28.6313 33.0009 29.8821 33.0009H30.0295C34.5925 33.1483 37.7552 28.2179 36.2107 24.1708C35.3274 21.5956 32.7521 19.9036 30.0305 19.9036C29.6621 19.9036 29.2936 19.9036 28.9261 19.9773C26.9394 20.1984 24.9527 21.8893 24.0694 23.656L15.1666 8.20241C19.3623 4.7756 24.6133 2.90402 30.0305 2.90454C43.0562 2.90454 53.652 13.5013 53.652 26.526C53.652 39.4043 43.0562 50 30.0305 50ZM90.1517 29.3223L86.5468 23.2138C86.3994 23.8034 86.3257 24.3919 86.3257 25.0541V41.9069H92.8007V33.958L90.1517 29.3223ZM128.491 28.0705L131.949 34.0317V41.8321H131.876V41.9058H124.59V21.3755L128.491 28.0705ZM128.491 24.8341L131.949 30.7194V26.8945C131.949 24.0981 136.659 23.8781 136.659 26.8945V41.8321H141.001V41.9058H144.753V26.8945C144.753 24.0981 149.463 23.8781 149.463 26.8945V41.9058H156.749V26.526C156.749 18.2107 146.298 16.6662 142.472 21.8893C140.117 18.6529 135.261 17.9896 131.875 19.9036V18.8729H125.031L128.491 24.8341ZM169.11 32.045L161.163 18.2844V41.8332H167.638V40.8761C169.192 41.6532 170.906 42.0563 172.643 42.0532C178.897 42.0532 184.048 36.9027 184.048 30.5741C184.048 24.3203 178.897 19.1688 172.643 19.1688C170.803 19.1688 169.11 19.611 167.639 20.3458V10.8535H161.163V14.9732L169.258 28.8812C169.847 27.7041 171.171 26.8218 172.643 26.8218C174.704 26.8218 176.396 28.5137 176.396 30.5741C176.396 32.6345 174.704 34.3275 172.643 34.3275C171.023 34.3275 169.699 33.4442 169.11 32.046V32.045ZM195.012 32.265L189.716 23.1411C187.949 25.1278 186.919 27.7031 186.919 30.5731C186.919 36.9006 192.071 42.0522 198.398 42.0522C204.653 42.0522 209.803 36.9017 209.803 30.5731C209.803 24.3192 204.653 19.1677 198.398 19.1677C195.528 19.1677 192.952 20.1974 190.891 21.964L195.012 28.9549C195.32 28.3177 195.801 27.7799 196.399 27.4026C196.998 27.0253 197.69 26.8237 198.398 26.8208C200.458 26.8208 202.151 28.5127 202.151 30.5731C202.151 32.6335 200.458 34.3265 198.398 34.3265C196.926 34.3265 195.602 33.5158 195.012 32.265ZM111.564 35.9457C112.743 35.5035 113.552 34.3991 113.773 33.1483H121.279C120.738 35.4279 119.521 37.4909 117.788 39.0668C116.054 40.6427 113.885 41.658 111.564 41.9795C111.123 41.9795 110.608 42.0522 110.094 42.0522C103.84 42.0522 98.6881 36.9017 98.6881 30.5731C98.6881 28.0705 99.4967 25.8638 100.822 23.9507L106.709 34.0317C107.298 35.3561 108.548 36.2384 110.094 36.2384C110.608 36.2384 111.123 36.1658 111.564 35.9457ZM111.564 28.5864H113.847C113.699 27.1893 112.815 26.0838 111.564 25.57C111.123 25.3489 110.608 25.2752 110.094 25.2752C108.108 25.2752 106.561 26.6734 106.414 28.5864H111.564ZM111.564 19.2414C111.123 19.2414 110.608 19.1677 110.094 19.1677C107.003 19.1677 104.06 20.4922 101.999 22.6252L107.445 32.045V31.5291H121.5C121.5 31.1606 121.574 30.8679 121.574 30.5731C121.574 24.8341 117.157 19.9773 111.564 19.2414ZM90.1517 26.0827L87.4291 21.4471C88.138 20.5976 89.087 19.9822 90.1517 19.6815C90.7413 19.4604 91.4025 19.3867 91.9921 19.3867H97.2163V25.4216H95.7434C94.0514 25.4216 92.8007 26.5976 92.8007 28.3642V30.6468L90.1517 26.0827ZM67.6358 32.045L59.6131 18.2844V41.8332H66.0902V40.8761C67.6358 41.6131 69.3277 42.0532 71.0933 42.0532C77.3482 42.0532 82.5734 36.9027 82.5734 30.5741C82.5734 24.3203 77.3482 19.1688 71.0933 19.1688C69.3277 19.1688 67.6358 19.611 66.0902 20.3458V10.8535H59.6131V14.9732L67.7074 28.8812C68.2969 27.7041 69.6204 26.8218 71.0922 26.8218C73.1537 26.8218 74.8456 28.5137 74.8456 30.5741C74.8456 32.6345 73.1526 34.3265 71.0922 34.3265C69.5477 34.3265 68.2233 33.4431 67.6347 32.045" fill="#C7070F"/>
</g>
<defs>
<clipPath id="clip0">
<rect width="215.889" height="50" fill="white" transform="translate(0.161987)"/>
</clipPath>
</defs>
</svg>
