<svg width="61" height="60" viewBox="0 0 61 60" fill="none" xmlns="http://www.w3.org/2000/svg">
<path d="M8 46.875H5.1875C4.93886 46.875 4.7004 46.9738 4.52459 47.1496C4.34877 47.3254 4.25 47.5639 4.25 47.8125C4.25 48.0611 4.34877 48.2996 4.52459 48.4754C4.7004 48.6512 4.93886 48.75 5.1875 48.75H8C8.24864 48.75 8.4871 48.6512 8.66291 48.4754C8.83873 48.2996 8.9375 48.0611 8.9375 47.8125C8.9375 47.5639 8.83873 47.3254 8.66291 47.1496C8.4871 46.9738 8.24864 46.875 8 46.875Z" fill="#EE9623"/>
<path d="M11.75 46.875H10.8125C10.5639 46.875 10.3254 46.9738 10.1496 47.1496C9.97377 47.3254 9.875 47.5639 9.875 47.8125C9.875 48.0611 9.97377 48.2996 10.1496 48.4754C10.3254 48.6512 10.5639 48.75 10.8125 48.75H11.75C11.9986 48.75 12.2371 48.6512 12.4129 48.4754C12.5887 48.2996 12.6875 48.0611 12.6875 47.8125C12.6875 47.5639 12.5887 47.3254 12.4129 47.1496C12.2371 46.9738 11.9986 46.875 11.75 46.875Z" fill="#EE9623"/>
<path d="M55.8125 19.6875H53.9375V12.1875C53.9362 11.1933 53.5407 10.2403 52.8377 9.53729C52.1347 8.83431 51.1817 8.4388 50.1875 8.4375H10.8125C9.81828 8.43862 8.8651 8.83406 8.16208 9.53708C7.45906 10.2401 7.06362 11.1933 7.0625 12.1875V29.0625H5.1875C4.19328 29.0636 3.2401 29.4591 2.53708 30.1621C1.83406 30.8651 1.43862 31.8183 1.4375 32.8125V47.8125C1.43862 48.8067 1.83406 49.7599 2.53708 50.4629C3.2401 51.1659 4.19328 51.5614 5.1875 51.5625H14.5625C15.5567 51.5612 16.5097 51.1657 17.2127 50.4627C17.9157 49.7597 18.3112 48.8067 18.3125 47.8125V45H26.4863L26.0176 46.875H23C22.7514 46.875 22.5129 46.9738 22.3371 47.1496C22.1613 47.3254 22.0625 47.5639 22.0625 47.8125V50.625C22.0625 50.8736 22.1613 51.1121 22.3371 51.2879C22.5129 51.4637 22.7514 51.5625 23 51.5625H55.8125C56.8067 51.5612 57.7597 51.1657 58.4627 50.4627C59.1657 49.7597 59.5612 48.8067 59.5625 47.8125V23.4375C59.5612 22.4433 59.1657 21.4903 58.4627 20.7873C57.7597 20.0843 56.8067 19.6888 55.8125 19.6875ZM16.4375 47.8125C16.4368 48.3096 16.2391 48.7861 15.8876 49.1376C15.5361 49.4891 15.0596 49.6868 14.5625 49.6875H5.1875C4.69042 49.6868 4.21388 49.4891 3.86239 49.1376C3.5109 48.7861 3.31315 48.3096 3.3125 47.8125V32.8125C3.31315 32.3154 3.5109 31.8389 3.86239 31.4874C4.21388 31.1359 4.69042 30.9382 5.1875 30.9375H6.38633L7.11055 33.109C7.17278 33.2957 7.29217 33.458 7.4518 33.5731C7.61144 33.6881 7.80323 33.75 8 33.75H11.75C11.9468 33.75 12.1386 33.6881 12.2982 33.5731C12.4578 33.458 12.5772 33.2957 12.6395 33.109L13.3637 30.9375H14.5625C15.0596 30.9382 15.5361 31.1359 15.8876 31.4874C16.2391 31.8389 16.4368 32.3154 16.4375 32.8125V47.8125ZM8.36328 30.9375H11.3867L11.0738 31.875H8.67617L8.36328 30.9375ZM18.3125 43.125V40.3125H35.1875V43.125H18.3125ZM35.1875 45V46.875H34.9824L34.5137 45H35.1875ZM33.0488 46.875H27.9512L28.4199 45H32.5801L33.0488 46.875ZM23.9375 49.6875V48.75H35.3059C35.3917 49.0786 35.5218 49.394 35.6926 49.6875H23.9375ZM35.1875 23.4375V38.4375H18.3125V32.8125C18.3112 31.8183 17.9157 30.8653 17.2127 30.1623C16.5097 29.4593 15.5567 29.0638 14.5625 29.0625H8.9375V12.1875C8.93815 11.6904 9.1359 11.2139 9.48739 10.8624C9.83888 10.5109 10.3154 10.3132 10.8125 10.3125H50.1875C50.6846 10.3132 51.1611 10.5109 51.5126 10.8624C51.8641 11.2139 52.0618 11.6904 52.0625 12.1875V19.6875H38.9375C37.9433 19.6888 36.9903 20.0843 36.2873 20.7873C35.5843 21.4903 35.1888 22.4433 35.1875 23.4375ZM57.6875 47.8125C57.6868 48.3096 57.4891 48.7861 57.1376 49.1376C56.7861 49.4891 56.3096 49.6868 55.8125 49.6875H38.9375C38.4404 49.6868 37.9639 49.4891 37.6124 49.1376C37.2609 48.7861 37.0632 48.3096 37.0625 47.8125V23.4375C37.0632 22.9404 37.2609 22.4639 37.6124 22.1124C37.9639 21.7609 38.4404 21.5632 38.9375 21.5625H55.8125C56.3096 21.5632 56.7861 21.7609 57.1376 22.1124C57.4891 22.4639 57.6868 22.9404 57.6875 23.4375V47.8125Z" fill="#EE9623"/>
<path d="M55.8125 22.5H38.9375C38.6889 22.5 38.4504 22.5988 38.2746 22.7746C38.0988 22.9504 38 23.1889 38 23.4375V45C38 45.2486 38.0988 45.4871 38.2746 45.6629C38.4504 45.8387 38.6889 45.9375 38.9375 45.9375H55.8125C56.0611 45.9375 56.2996 45.8387 56.4754 45.6629C56.6512 45.4871 56.75 45.2486 56.75 45V23.4375C56.75 23.1889 56.6512 22.9504 56.4754 22.7746C56.2996 22.5988 56.0611 22.5 55.8125 22.5ZM54.875 44.0625H39.875V24.375H54.875V44.0625Z" fill="#EE9623"/>
<path d="M46.4375 48.75C46.9553 48.75 47.375 48.3303 47.375 47.8125C47.375 47.2947 46.9553 46.875 46.4375 46.875C45.9197 46.875 45.5 47.2947 45.5 47.8125C45.5 48.3303 45.9197 48.75 46.4375 48.75Z" fill="#EE9623"/>
</svg>
