<svg width="20" height="20" viewBox="0 0 20 20" fill="none" xmlns="http://www.w3.org/2000/svg">
<path fill-rule="evenodd" clip-rule="evenodd" d="M10.2088 7.0835C9.40459 7.0835 8.75043 7.73766 8.75043 8.54266C8.75043 9.34683 9.40459 10.0002 10.2088 10.0002C11.0129 10.0002 11.6671 9.34683 11.6671 8.54266C11.6671 7.73766 11.0129 7.0835 10.2088 7.0835M10.2088 11.2502C8.71543 11.2502 7.50043 10.036 7.50043 8.54266C7.50043 7.0485 8.71543 5.8335 10.2088 5.8335C11.7021 5.8335 12.9171 7.0485 12.9171 8.54266C12.9171 10.036 11.7021 11.2502 10.2088 11.2502" fill="#130F26"/>
<mask id="mask0" mask-type="alpha" maskUnits="userSpaceOnUse" x="3" y="1" width="15" height="17">
<path fill-rule="evenodd" clip-rule="evenodd" d="M3.33334 1.66675H17.0829V17.9167H3.33334V1.66675Z" fill="white"/>
</mask>
<g mask="url(#mask0)">
<path fill-rule="evenodd" clip-rule="evenodd" d="M10.2079 2.91675C7.10625 2.91675 4.58292 5.46425 4.58292 8.59425C4.58292 12.5767 9.26958 16.4567 10.2079 16.6634C11.1462 16.4559 15.8329 12.5759 15.8329 8.59425C15.8329 5.46425 13.3096 2.91675 10.2079 2.91675V2.91675ZM10.2079 17.9167C8.71292 17.9167 3.33292 13.2901 3.33292 8.59425C3.33292 4.77425 6.41708 1.66675 10.2079 1.66675C13.9987 1.66675 17.0829 4.77425 17.0829 8.59425C17.0829 13.2901 11.7029 17.9167 10.2079 17.9167V17.9167Z" fill="#130F26"/>
</g>
</svg>
