<svg width="11" height="11" viewBox="0 0 11 11" fill="none" xmlns="http://www.w3.org/2000/svg">
<g clip-path="url(#clip0)">
<path d="M10.9944 4.42966C10.9921 4.42016 10.9921 4.41026 10.9944 4.40075V4.35737C11.0037 4.30316 11.0037 4.24774 10.9944 4.19352L10.3246 2.23207V0.983881C10.3246 0.856066 10.2739 0.733485 10.1835 0.643106C10.0932 0.552728 9.9706 0.501953 9.84282 0.501953H1.17002C1.04223 0.501953 0.919678 0.552728 0.829318 0.643106C0.738959 0.733485 0.688196 0.856066 0.688196 0.983881V2.22725L0.0280996 4.15497C0.0188671 4.20272 0.0188671 4.25179 0.0280996 4.29954C0.0280996 4.29954 0.0280996 4.29954 0.0280996 4.29954C0.0280996 4.29954 -0.000809775 4.32846 -0.000809775 4.35737C-0.00314804 4.37174 -0.00314804 4.38639 -0.000809775 4.40075C0.0201118 4.96601 0.264452 5.49986 0.678559 5.88509V10.0393C0.678559 10.1671 0.729323 10.2897 0.819682 10.3801C0.910041 10.4705 1.03259 10.5212 1.16038 10.5212H9.83318C9.96097 10.5212 10.0835 10.4705 10.1739 10.3801C10.2642 10.2897 10.315 10.1671 10.315 10.0393V5.84171C10.7107 5.47302 10.9532 4.96896 10.9944 4.42966V4.42966ZM9.90545 4.8393C9.80651 5.03489 9.65528 5.19922 9.46858 5.31401C9.28188 5.42881 9.06701 5.48958 8.84785 5.48958C8.6287 5.48958 8.41383 5.42881 8.22713 5.31401C8.04043 5.19922 7.8892 5.03489 7.79025 4.8393H8.85026H9.90545ZM6.57124 4.8393C6.47483 5.04131 6.3232 5.21189 6.13391 5.3313C5.94462 5.45072 5.7254 5.51409 5.5016 5.51409C5.2778 5.51409 5.05858 5.45072 4.86929 5.3313C4.67999 5.21189 4.52837 5.04131 4.43195 4.8393H4.66805H6.57124ZM1.06884 4.8393H3.23222C3.13723 5.04639 2.98481 5.22186 2.79307 5.34488C2.60133 5.46789 2.37832 5.53328 2.15053 5.53328C1.92273 5.53328 1.69972 5.46789 1.50798 5.34488C1.31624 5.22186 1.16383 5.04639 1.06884 4.8393V4.8393ZM9.85245 3.87545H8.86472H7.18798H7.15907H4.67287L3.85377 3.82725H1.18447L1.54102 2.79593H9.4959L9.85245 3.87545ZM1.66148 1.46581H9.37063V1.82725H1.66148V1.46581ZM5.37151 9.5381V7.79352H7.41925V9.5381H5.37151ZM9.37063 9.5381H8.40699V7.31159C8.40699 7.18378 8.35622 7.0612 8.26586 6.97082C8.1755 6.88044 8.05295 6.82966 7.92516 6.82966H4.88005C4.75226 6.82966 4.62971 6.88044 4.53935 6.97082C4.44899 7.0612 4.39823 7.18378 4.39823 7.31159V9.5381H1.65184V6.38629C1.8094 6.42683 1.97103 6.44946 2.13366 6.45376C2.46491 6.4579 2.79261 6.3852 3.09105 6.24138C3.3895 6.09756 3.65056 5.88653 3.85377 5.62484C4.05272 5.88287 4.30821 6.0918 4.60057 6.23556C4.89293 6.37932 5.21437 6.45408 5.54015 6.45408C5.86592 6.45408 6.18736 6.37932 6.47972 6.23556C6.77208 6.0918 7.02757 5.88287 7.22652 5.62484C7.42739 5.87541 7.68183 6.07777 7.97116 6.21704C8.2605 6.35632 8.57735 6.42897 8.89844 6.42966C9.06912 6.42682 9.2389 6.40418 9.40436 6.36219L9.37063 9.5381Z" fill="#5A5A5A"/>
</g>
<defs>
<clipPath id="clip0">
<rect width="11" height="10" fill="white" transform="translate(0 0.501953)"/>
</clipPath>
</defs>
</svg>
