<svg width="154" height="51" viewBox="0 0 154 51" fill="none" xmlns="http://www.w3.org/2000/svg">
<rect x="0.219055" width="153.219" height="50.4097" rx="7.95943" fill="black"/>
<path d="M57.3617 30.5213C57.1495 30.1322 56.8576 29.8359 56.4862 29.6325C56.1148 29.4291 55.6814 29.3274 55.1862 29.3274C54.6378 29.3274 54.1514 29.4512 53.7269 29.6988C53.3024 29.9465 52.9708 30.3002 52.732 30.7601C52.4932 31.22 52.3738 31.7506 52.3738 32.352C52.3738 32.9711 52.4932 33.5105 52.732 33.9704C52.9796 34.4303 53.3201 34.784 53.7535 35.0317C54.1868 35.2793 54.6909 35.4031 55.2658 35.4031C55.9733 35.4031 56.5525 35.2174 57.0036 34.8459C57.4546 34.4657 57.7509 33.9395 57.8924 33.2673H54.7086V31.8479H59.723V33.4663C59.5992 34.1119 59.3339 34.7089 58.9271 35.2572C58.5203 35.8055 57.9941 36.2477 57.3485 36.5838C56.7117 36.911 55.9954 37.0746 55.1994 37.0746C54.3062 37.0746 53.497 36.8756 52.7718 36.4776C52.0555 36.0708 51.4895 35.5092 51.0738 34.7929C50.667 34.0765 50.4636 33.2629 50.4636 32.352C50.4636 31.4411 50.667 30.6274 51.0738 29.9111C51.4895 29.1859 52.0555 28.6243 52.7718 28.2264C53.497 27.8195 54.3018 27.6161 55.1862 27.6161C56.2297 27.6161 57.1362 27.8726 57.9056 28.3855C58.675 28.8896 59.2057 29.6016 59.4975 30.5213H57.3617ZM64.3604 37.1144C63.6529 37.1144 63.0162 36.9596 62.4502 36.6501C61.8842 36.3317 61.4376 35.8851 61.1103 35.3102C60.792 34.7354 60.6328 34.0721 60.6328 33.3204C60.6328 32.5687 60.7964 31.9054 61.1236 31.3305C61.4597 30.7557 61.9151 30.3135 62.49 30.004C63.0648 29.6856 63.706 29.5264 64.4135 29.5264C65.121 29.5264 65.7622 29.6856 66.337 30.004C66.9119 30.3135 67.3629 30.7557 67.6901 31.3305C68.0262 31.9054 68.1942 32.5687 68.1942 33.3204C68.1942 34.0721 68.0218 34.7354 67.6769 35.3102C67.3408 35.8851 66.8809 36.3317 66.2972 36.6501C65.7224 36.9596 65.0768 37.1144 64.3604 37.1144ZM64.3604 35.496C64.6965 35.496 65.0105 35.4164 65.3023 35.2572C65.603 35.0892 65.8418 34.8415 66.0187 34.5143C66.1955 34.1871 66.284 33.7891 66.284 33.3204C66.284 32.6217 66.0983 32.0867 65.7268 31.7152C65.3642 31.335 64.9176 31.1448 64.387 31.1448C63.8564 31.1448 63.4097 31.335 63.0471 31.7152C62.6934 32.0867 62.5165 32.6217 62.5165 33.3204C62.5165 34.0191 62.689 34.5585 63.0339 34.9388C63.3876 35.3102 63.8298 35.496 64.3604 35.496ZM72.8199 37.1144C72.1124 37.1144 71.4757 36.9596 70.9097 36.6501C70.3437 36.3317 69.8971 35.8851 69.5698 35.3102C69.2515 34.7354 69.0923 34.0721 69.0923 33.3204C69.0923 32.5687 69.2559 31.9054 69.5831 31.3305C69.9192 30.7557 70.3746 30.3135 70.9495 30.004C71.5243 29.6856 72.1655 29.5264 72.873 29.5264C73.5805 29.5264 74.2217 29.6856 74.7965 30.004C75.3714 30.3135 75.8224 30.7557 76.1496 31.3305C76.4857 31.9054 76.6537 32.5687 76.6537 33.3204C76.6537 34.0721 76.4813 34.7354 76.1364 35.3102C75.8003 35.8851 75.3404 36.3317 74.7567 36.6501C74.1819 36.9596 73.5363 37.1144 72.8199 37.1144ZM72.8199 35.496C73.156 35.496 73.47 35.4164 73.7618 35.2572C74.0625 35.0892 74.3013 34.8415 74.4782 34.5143C74.655 34.1871 74.7435 33.7891 74.7435 33.3204C74.7435 32.6217 74.5577 32.0867 74.1863 31.7152C73.8237 31.335 73.3771 31.1448 72.8465 31.1448C72.3158 31.1448 71.8692 31.335 71.5066 31.7152C71.1529 32.0867 70.976 32.6217 70.976 33.3204C70.976 34.0191 71.1485 34.5585 71.4934 34.9388C71.8471 35.3102 72.2893 35.496 72.8199 35.496ZM80.8947 29.5264C81.443 29.5264 81.925 29.6369 82.3407 29.858C82.7563 30.0703 83.0836 30.3489 83.3223 30.6938V29.6458H85.1928V37.0481C85.1928 37.729 85.0557 38.3348 84.7816 38.8655C84.5074 39.4049 84.0962 39.8294 83.5479 40.139C82.9995 40.4573 82.3363 40.6165 81.558 40.6165C80.5144 40.6165 79.6566 40.3733 78.9845 39.8869C78.3212 39.4005 77.9453 38.7372 77.8569 37.8971H79.7008C79.7981 38.2331 80.0059 38.4984 80.3243 38.693C80.6515 38.8964 81.0451 38.9981 81.5049 38.9981C82.0444 38.9981 82.4822 38.8345 82.8182 38.5073C83.1543 38.1889 83.3223 37.7025 83.3223 37.0481V35.9072C83.0836 36.2521 82.7519 36.5395 82.3274 36.7695C81.9118 36.9994 81.4342 37.1144 80.8947 37.1144C80.2757 37.1144 79.7096 36.9552 79.1967 36.6368C78.6838 36.3184 78.2769 35.8718 77.9763 35.297C77.6844 34.7133 77.5385 34.0456 77.5385 33.2939C77.5385 32.551 77.6844 31.8921 77.9763 31.3173C78.2769 30.7424 78.6793 30.3002 79.1834 29.9907C79.6964 29.6812 80.2668 29.5264 80.8947 29.5264ZM83.3223 33.3204C83.3223 32.8694 83.2339 32.4846 83.057 32.1663C82.8802 31.8391 82.6414 31.5914 82.3407 31.4234C82.04 31.2465 81.7172 31.1581 81.3723 31.1581C81.0274 31.1581 80.709 31.2421 80.4172 31.4101C80.1253 31.5782 79.8865 31.8258 79.7008 32.153C79.5239 32.4714 79.4355 32.8517 79.4355 33.2939C79.4355 33.736 79.5239 34.1252 79.7008 34.4612C79.8865 34.7885 80.1253 35.0405 80.4172 35.2174C80.7178 35.3943 81.0362 35.4827 81.3723 35.4827C81.7172 35.4827 82.04 35.3987 82.3407 35.2307C82.6414 35.0538 82.8802 34.8062 83.057 34.4878C83.2339 34.1606 83.3223 33.7714 83.3223 33.3204ZM88.8639 27.1784V36.995H87.0067V27.1784H88.8639ZM97.5307 33.1612C97.5307 33.4265 97.513 33.6653 97.4776 33.8776H92.105C92.1492 34.4082 92.3349 34.8238 92.6621 35.1245C92.9894 35.4252 93.3918 35.5756 93.8693 35.5756C94.5591 35.5756 95.05 35.2793 95.3418 34.6868H97.3449C97.1327 35.3943 96.7259 35.978 96.1245 36.4378C95.5231 36.8889 94.7847 37.1144 93.9091 37.1144C93.2016 37.1144 92.5649 36.9596 91.9989 36.6501C91.4417 36.3317 91.0039 35.8851 90.6855 35.3102C90.376 34.7354 90.2212 34.0721 90.2212 33.3204C90.2212 32.5598 90.376 31.8921 90.6855 31.3173C90.9951 30.7424 91.4284 30.3002 91.9856 29.9907C92.5427 29.6812 93.1839 29.5264 93.9091 29.5264C94.6078 29.5264 95.2313 29.6767 95.7796 29.9774C96.3367 30.2781 96.7657 30.707 97.0664 31.2642C97.3759 31.8125 97.5307 32.4449 97.5307 33.1612ZM95.6071 32.6306C95.5983 32.153 95.4258 31.7727 95.0898 31.4897C94.7537 31.1979 94.3425 31.052 93.8561 31.052C93.3962 31.052 93.007 31.1935 92.6887 31.4765C92.3791 31.7506 92.189 32.1353 92.1182 32.6306H95.6071ZM108.799 30.6009C108.799 31.0962 108.68 31.5605 108.441 31.9938C108.211 32.4272 107.844 32.7765 107.34 33.0418C106.845 33.3071 106.217 33.4398 105.457 33.4398H103.904V36.995H102.047V27.7355H105.457C106.173 27.7355 106.783 27.8593 107.287 28.107C107.791 28.3546 108.167 28.6951 108.415 29.1284C108.671 29.5618 108.799 30.0526 108.799 30.6009ZM105.377 31.9408C105.89 31.9408 106.27 31.8258 106.518 31.5958C106.765 31.3571 106.889 31.0254 106.889 30.6009C106.889 29.6988 106.385 29.2478 105.377 29.2478H103.904V31.9408H105.377ZM111.975 27.1784V36.995H110.118V27.1784H111.975ZM113.333 33.2939C113.333 32.551 113.479 31.8921 113.77 31.3173C114.071 30.7424 114.473 30.3002 114.978 29.9907C115.491 29.6812 116.061 29.5264 116.689 29.5264C117.237 29.5264 117.715 29.6369 118.122 29.858C118.537 30.0791 118.869 30.3577 119.116 30.6938V29.6458H120.987V36.995H119.116V35.9205C118.878 36.2654 118.546 36.5528 118.122 36.7827C117.706 37.0038 117.224 37.1144 116.676 37.1144C116.057 37.1144 115.491 36.9552 114.978 36.6368C114.473 36.3184 114.071 35.8718 113.77 35.297C113.479 34.7133 113.333 34.0456 113.333 33.2939ZM119.116 33.3204C119.116 32.8694 119.028 32.4846 118.851 32.1663C118.674 31.8391 118.435 31.5914 118.135 31.4234C117.834 31.2465 117.511 31.1581 117.166 31.1581C116.822 31.1581 116.503 31.2421 116.211 31.4101C115.919 31.5782 115.681 31.8258 115.495 32.153C115.318 32.4714 115.23 32.8517 115.23 33.2939C115.23 33.736 115.318 34.1252 115.495 34.4612C115.681 34.7885 115.919 35.0405 116.211 35.2174C116.512 35.3943 116.83 35.4827 117.166 35.4827C117.511 35.4827 117.834 35.3987 118.135 35.2307C118.435 35.0538 118.674 34.8062 118.851 34.4878C119.028 34.1606 119.116 33.7714 119.116 33.3204ZM129.832 29.6458L125.282 40.4706H123.305L124.897 36.8093L121.952 29.6458H124.035L125.932 34.7796L127.855 29.6458H129.832Z" fill="white"/>
<path d="M54.7809 13.0297C54.627 12.706 54.4042 12.4566 54.1123 12.2815C53.8205 12.1011 53.4809 12.0109 53.0935 12.0109C52.7062 12.0109 52.3559 12.1011 52.0429 12.2815C51.7351 12.4566 51.491 12.7113 51.3106 13.0456C51.1355 13.3746 51.0479 13.7566 51.0479 14.1918C51.0479 14.6269 51.1355 15.0089 51.3106 15.3379C51.491 15.6669 51.7351 15.9216 52.0429 16.102C52.3559 16.2771 52.7062 16.3647 53.0935 16.3647C53.6348 16.3647 54.0805 16.2028 54.4307 15.8792C54.7809 15.5555 54.9852 15.1177 55.0436 14.5659H52.8308V13.9769H55.8156V14.534C55.7732 14.9904 55.6299 15.4096 55.3858 15.7916C55.1417 16.1684 54.8207 16.4682 54.4227 16.691C54.0248 16.9086 53.5817 17.0174 53.0935 17.0174C52.5788 17.0174 52.1092 16.898 51.6847 16.6592C51.2602 16.4151 50.9232 16.0781 50.6738 15.6483C50.4298 15.2185 50.3077 14.733 50.3077 14.1918C50.3077 13.6505 50.4298 13.165 50.6738 12.7352C50.9232 12.3001 51.2602 11.9631 51.6847 11.7243C52.1092 11.4802 52.5788 11.3582 53.0935 11.3582C53.6825 11.3582 54.2025 11.5041 54.6536 11.796C55.1099 12.0878 55.4415 12.4991 55.6485 13.0297H54.7809ZM57.4976 12.0109V13.8654H59.5193V14.4624H57.4976V16.3726H59.7581V16.9696H56.7733V11.4139H59.7581V12.0109H57.4976ZM64.2687 11.4219V12.0109H62.7564V16.9696H62.0321V12.0109H60.5118V11.4219H64.2687ZM68.0066 11.4219V16.9696H67.2823V11.4219H68.0066ZM72.6556 11.4219V12.0109H71.1433V16.9696H70.419V12.0109H68.8988V11.4219H72.6556ZM78.1844 17.0253C77.6697 17.0253 77.2001 16.9059 76.7756 16.6671C76.3511 16.4231 76.0141 16.0861 75.7647 15.6563C75.5206 15.2212 75.3986 14.733 75.3986 14.1918C75.3986 13.6505 75.5206 13.165 75.7647 12.7352C76.0141 12.3001 76.3511 11.9631 76.7756 11.7243C77.2001 11.4802 77.6697 11.3582 78.1844 11.3582C78.7044 11.3582 79.1767 11.4802 79.6012 11.7243C80.0257 11.9631 80.36 12.2974 80.604 12.7272C80.8481 13.157 80.9702 13.6452 80.9702 14.1918C80.9702 14.7383 80.8481 15.2265 80.604 15.6563C80.36 16.0861 80.0257 16.4231 79.6012 16.6671C79.1767 16.9059 78.7044 17.0253 78.1844 17.0253ZM78.1844 16.3965C78.5717 16.3965 78.9193 16.3063 79.2271 16.1259C79.5401 15.9455 79.7842 15.6881 79.9593 15.3538C80.1397 15.0195 80.23 14.6322 80.23 14.1918C80.23 13.746 80.1397 13.3587 79.9593 13.0297C79.7842 12.6954 79.5428 12.438 79.235 12.2576C78.9273 12.0772 78.577 11.987 78.1844 11.987C77.7917 11.987 77.4415 12.0772 77.1337 12.2576C76.826 12.438 76.5819 12.6954 76.4015 13.0297C76.2264 13.3587 76.1388 13.746 76.1388 14.1918C76.1388 14.6322 76.2264 15.0195 76.4015 15.3538C76.5819 15.6881 76.826 15.9455 77.1337 16.1259C77.4468 16.3063 77.797 16.3965 78.1844 16.3965ZM86.2881 16.9696H85.5638L82.6507 12.5521V16.9696H81.9264V11.4139H82.6507L85.5638 15.8234V11.4139H86.2881V16.9696Z" fill="white"/>
<path d="M28.0127 25.6336L19.7647 16.4577L30.2588 23.1416L28.0127 25.6336ZM17.6121 15.9187C17.1263 16.2007 16.8011 16.7148 16.8011 17.3824V35.6802C16.8011 36.3478 17.1263 36.8619 17.6121 37.1439L27.2018 26.5292L17.6121 15.9187ZM33.5027 25.2729L31.3015 23.859L28.8461 26.5334L31.3015 29.2077L33.5475 27.7938C34.2202 27.2009 34.2202 25.8658 33.5027 25.2729ZM19.7647 36.609L30.2588 29.9251L28.0127 27.4331L19.7647 36.609Z" fill="white"/>
</svg>
