<svg width="30" height="30" viewBox="0 0 30 30" fill="none" xmlns="http://www.w3.org/2000/svg">
<circle cx="15" cy="15" r="15" fill="#F4F4F4"/>
<mask id="mask0" mask-type="alpha" maskUnits="userSpaceOnUse" x="10" y="16" width="11" height="6">
<path fill-rule="evenodd" clip-rule="evenodd" d="M10 16.3306H20.5599V21.2466H10V16.3306Z" fill="white"/>
</mask>
<g mask="url(#mask0)">
<path fill-rule="evenodd" clip-rule="evenodd" d="M15.2807 17.3306C12.44 17.3306 11 17.8186 11 18.7819C11 19.7539 12.44 20.2466 15.2807 20.2466C18.1207 20.2466 19.56 19.7586 19.56 18.7952C19.56 17.8232 18.1207 17.3306 15.2807 17.3306ZM15.2807 21.2466C13.9747 21.2466 10 21.2466 10 18.7819C10 16.5846 13.014 16.3306 15.2807 16.3306C16.5867 16.3306 20.56 16.3306 20.56 18.7952C20.56 20.9926 17.5467 21.2466 15.2807 21.2466Z" fill="#5A5A5A"/>
</g>
<mask id="mask1" mask-type="alpha" maskUnits="userSpaceOnUse" x="11" y="8" width="8" height="8">
<path fill-rule="evenodd" clip-rule="evenodd" d="M11.7399 8H18.8199V15.0791H11.7399V8Z" fill="white"/>
</mask>
<g mask="url(#mask1)">
<path fill-rule="evenodd" clip-rule="evenodd" d="M15.2805 8.95151C13.8532 8.95151 12.6919 10.1122 12.6919 11.5395C12.6872 12.9622 13.8399 14.1222 15.2612 14.1275L15.2805 14.6035V14.1275C16.7072 14.1275 17.8679 12.9662 17.8679 11.5395C17.8679 10.1122 16.7072 8.95151 15.2805 8.95151ZM15.2806 15.0788H15.2592C13.3112 15.0728 11.7332 13.4842 11.7399 11.5375C11.7399 9.58751 13.3279 7.99951 15.2806 7.99951C17.2326 7.99951 18.8199 9.58751 18.8199 11.5395C18.8199 13.4915 17.2326 15.0788 15.2806 15.0788Z" fill="#5A5A5A"/>
</g>
</svg>
